SD_testing_untis.sim/sim_1/behav/xsim/simulate.log
Time resolution is 1 ps
Time = 0 | reset = 1 | data_in = 00000000 | display_LED = 00000000000000000000 | buzzer = 0
Time = 50000 | reset = 0 | data_in = 00000000 | display_LED = 00000000000000000000 | buzzer = 0
Time = 70000 | reset = 0 | data_in = 00110010 | display_LED = 00000000000000000000 | buzzer = 0
Time = 80000 | reset = 0 | data_in = 01100100 | display_LED = 00000000000000000000 | buzzer = 0
Time = 90000 | reset = 0 | data_in = 10010110 | display_LED = 00000000000000000000 | buzzer = 0
Time = 100000 | reset = 0 | data_in = 11001000 | display_LED = 00000000000000000000 | buzzer = 0
Time = 110000 | reset = 0 | data_in = 11111010 | display_LED = 00000000000000000000 | buzzer = 0
Time = 114000 | reset = 0 | data_in = 11111010 | display_LED = 00000000000000001111 | buzzer = 0
Time = 120000 | reset = 0 | data_in = 00101100 | display_LED = 00000000000000001111 | buzzer = 0
Time = 124000 | reset = 0 | data_in = 00101100 | display_LED = 00000000000011111111 | buzzer = 0
Time = 130000 | reset = 0 | data_in = 01011110 | display_LED = 00000000000011111111 | buzzer = 0
Time = 134000 | reset = 0 | data_in = 01011110 | display_LED = 00000000111111111111 | buzzer = 0
Time = 140000 | reset = 0 | data_in = 10010000 | display_LED = 00000000111111111111 | buzzer = 0
Time = 144000 | reset = 0 | data_in = 10010000 | display_LED = 00001111111111111111 | buzzer = 0
Time = 146000 | reset = 0 | data_in = 10010000 | display_LED = 00001111111111111111 | buzzer = 1
Time = 150000 | reset = 0 | data_in = 11000010 | display_LED = 00001111111111111111 | buzzer = 1
Time = 151000 | reset = 0 | data_in = 11000010 | display_LED = 00001111111111111111 | buzzer = 0
Time = 154000 | reset = 0 | data_in = 11000010 | display_LED = 11111111111111111111 | buzzer = 0
Time = 156000 | reset = 0 | data_in = 11000010 | display_LED = 11111111111111111111 | buzzer = 1
Time = 160000 | reset = 0 | data_in = 11110100 | display_LED = 11111111111111111111 | buzzer = 1
Time = 161000 | reset = 0 | data_in = 11110100 | display_LED = 11111111111111111111 | buzzer = 0
Time = 170000 | reset = 0 | data_in = 00100110 | display_LED = 11111111111111111111 | buzzer = 0
Time = 180000 | reset = 0 | data_in = 01011000 | display_LED = 11111111111111111111 | buzzer = 0
Time = 190000 | reset = 0 | data_in = 10001010 | display_LED = 11111111111111111111 | buzzer = 0
Time = 196000 | reset = 0 | data_in = 10001010 | display_LED = 11111111111111111111 | buzzer = 1
Time = 200000 | reset = 0 | data_in = 10111100 | display_LED = 11111111111111111111 | buzzer = 1
Time = 201000 | reset = 0 | data_in = 10111100 | display_LED = 11111111111111111111 | buzzer = 0
Time = 206000 | reset = 0 | data_in = 10111100 | display_LED = 11111111111111111111 | buzzer = 1
Time = 210000 | reset = 0 | data_in = 11101110 | display_LED = 11111111111111111111 | buzzer = 1
Time = 211000 | reset = 0 | data_in = 11101110 | display_LED = 11111111111111111111 | buzzer = 0
Time = 220000 | reset = 0 | data_in = 00100000 | display_LED = 11111111111111111111 | buzzer = 0
Time = 230000 | reset = 0 | data_in = 01010010 | display_LED = 11111111111111111111 | buzzer = 0
Time = 240000 | reset = 0 | data_in = 10000100 | display_LED = 11111111111111111111 | buzzer = 0
Time = 246000 | reset = 0 | data_in = 10000100 | display_LED = 11111111111111111111 | buzzer = 1
Time = 250000 | reset = 0 | data_in = 10110110 | display_LED = 11111111111111111111 | buzzer = 1
Time = 251000 | reset = 0 | data_in = 10110110 | display_LED = 11111111111111111111 | buzzer = 0
Time = 256000 | reset = 0 | data_in = 10110110 | display_LED = 11111111111111111111 | buzzer = 1
Time = 261000 | reset = 0 | data_in = 10110110 | display_LED = 11111111111111111111 | buzzer = 0
Time = 296000 | reset = 0 | data_in = 10110110 | display_LED = 11111111111111111111 | buzzer = 1
Time = 301000 | reset = 0 | data_in = 10110110 | display_LED = 11111111111111111111 | buzzer = 0
Time = 306000 | reset = 0 | data_in = 10110110 | display_LED = 11111111111111111111 | buzzer = 1
Time = 311000 | reset = 0 | data_in = 10110110 | display_LED = 11111111111111111111 | buzzer = 0
Time = 316000 | reset = 0 | data_in = 10110110 | display_LED = 11111111111111111111 | buzzer = 1
Time = 321000 | reset = 0 | data_in = 10110110 | display_LED = 11111111111111111111 | buzzer = 0
Time = 326000 | reset = 0 | data_in = 10110110 | display_LED = 11111111111111111111 | buzzer = 1
Time = 331000 | reset = 0 | data_in = 10110110 | display_LED = 11111111111111111111 | buzzer = 0
Time = 336000 | reset = 0 | data_in = 10110110 | display_LED = 11111111111111111111 | buzzer = 1
Time = 341000 | reset = 0 | data_in = 10110110 | display_LED = 11111111111111111111 | buzzer = 0
Time = 346000 | reset = 0 | data_in = 10110110 | display_LED = 11111111111111111111 | buzzer = 1
Time = 351000 | reset = 0 | data_in = 10110110 | display_LED = 11111111111111111111 | buzzer = 0
Time = 356000 | reset = 0 | data_in = 10110110 | display_LED = 11111111111111111111 | buzzer = 1
Time = 360000 | reset = 0 | data_in = 00010000 | display_LED = 11111111111111111111 | buzzer = 1
Time = 361000 | reset = 0 | data_in = 00010000 | display_LED = 11111111111111111111 | buzzer = 0
Time = 366000 | reset = 0 | data_in = 00010000 | display_LED = 11111111111111111111 | buzzer = 1
Time = 370000 | reset = 0 | data_in = 01000010 | display_LED = 11111111111111111111 | buzzer = 1
Time = 371000 | reset = 0 | data_in = 01000010 | display_LED = 11111111111111111111 | buzzer = 0
Time = 376000 | reset = 0 | data_in = 01000010 | display_LED = 11111111111111111111 | buzzer = 1
Time = 380000 | reset = 0 | data_in = 01110100 | display_LED = 11111111111111111111 | buzzer = 1
Time = 381000 | reset = 0 | data_in = 01110100 | display_LED = 11111111111111111111 | buzzer = 0
Time = 386000 | reset = 0 | data_in = 01110100 | display_LED = 11111111111111111111 | buzzer = 1
Time = 390000 | reset = 0 | data_in = 10100110 | display_LED = 11111111111111111111 | buzzer = 1
Time = 391000 | reset = 0 | data_in = 10100110 | display_LED = 11111111111111111111 | buzzer = 0
Time = 396000 | reset = 0 | data_in = 10100110 | display_LED = 11111111111111111111 | buzzer = 1
Time = 400000 | reset = 0 | data_in = 11011000 | display_LED = 11111111111111111111 | buzzer = 1
Time = 401000 | reset = 0 | data_in = 11011000 | display_LED = 11111111111111111111 | buzzer = 0
Time = 410000 | reset = 0 | data_in = 00001010 | display_LED = 11111111111111111111 | buzzer = 0
Time = 420000 | reset = 0 | data_in = 00111100 | display_LED = 11111111111111111111 | buzzer = 0
Time = 430000 | reset = 0 | data_in = 01101110 | display_LED = 11111111111111111111 | buzzer = 0
Time = 440000 | reset = 0 | data_in = 10100000 | display_LED = 11111111111111111111 | buzzer = 0
Time = 446000 | reset = 0 | data_in = 10100000 | display_LED = 11111111111111111111 | buzzer = 1
Time = 450000 | reset = 0 | data_in = 11010010 | display_LED = 11111111111111111111 | buzzer = 1
Time = 451000 | reset = 0 | data_in = 11010010 | display_LED = 11111111111111111111 | buzzer = 0
Time = 460000 | reset = 0 | data_in = 00000100 | display_LED = 11111111111111111111 | buzzer = 0
Time = 470000 | reset = 0 | data_in = 00110110 | display_LED = 11111111111111111111 | buzzer = 0
Time = 480000 | reset = 0 | data_in = 01101000 | display_LED = 11111111111111111111 | buzzer = 0
Time = 490000 | reset = 0 | data_in = 10011010 | display_LED = 11111111111111111111 | buzzer = 0
Time = 496000 | reset = 0 | data_in = 10011010 | display_LED = 11111111111111111111 | buzzer = 1
Time = 500000 | reset = 0 | data_in = 11001100 | display_LED = 11111111111111111111 | buzzer = 1
Time = 501000 | reset = 0 | data_in = 11001100 | display_LED = 11111111111111111111 | buzzer = 0
Time = 510000 | reset = 0 | data_in = 11111110 | display_LED = 11111111111111111111 | buzzer = 0
Time = 520000 | reset = 0 | data_in = 00110000 | display_LED = 11111111111111111111 | buzzer = 0
Time = 530000 | reset = 0 | data_in = 01100010 | display_LED = 11111111111111111111 | buzzer = 0
Time = 540000 | reset = 0 | data_in = 10010100 | display_LED = 11111111111111111111 | buzzer = 0
Time = 546000 | reset = 0 | data_in = 10010100 | display_LED = 11111111111111111111 | buzzer = 1
Time = 550000 | reset = 0 | data_in = 11000110 | display_LED = 11111111111111111111 | buzzer = 1
