SD_testing_untis.sim/sim_1/behav/xsim/simulate.log
Time resolution is 1 ps
                   0 clk=0 rst=1 wr_en=0 rd_en=0 din=   0 dout=   x full=0 empty=1
                   5 clk=1 rst=1 wr_en=0 rd_en=0 din=   0 dout=   0 full=0 empty=1
                  10 clk=0 rst=0 wr_en=0 rd_en=0 din=   0 dout=   0 full=0 empty=1
                  15 clk=1 rst=0 wr_en=0 rd_en=0 din=   0 dout=   0 full=0 empty=1
                  20 clk=0 rst=0 wr_en=1 rd_en=0 din= 100 dout=   0 full=0 empty=1
                  25 clk=1 rst=0 wr_en=1 rd_en=0 din= 100 dout=   0 full=0 empty=0
                  30 clk=0 rst=0 wr_en=1 rd_en=0 din= 200 dout=   0 full=0 empty=0
                  35 clk=1 rst=0 wr_en=1 rd_en=0 din= 200 dout=   0 full=0 empty=0
                  40 clk=0 rst=0 wr_en=1 rd_en=0 din= 300 dout=   0 full=0 empty=0
                  45 clk=1 rst=0 wr_en=1 rd_en=0 din= 300 dout=   0 full=0 empty=0
                  50 clk=0 rst=0 wr_en=0 rd_en=0 din= 300 dout=   0 full=0 empty=0
                  55 clk=1 rst=0 wr_en=0 rd_en=0 din= 300 dout=   0 full=0 empty=0
                  60 clk=0 rst=0 wr_en=0 rd_en=1 din= 300 dout=   0 full=0 empty=0
                  65 clk=1 rst=0 wr_en=0 rd_en=1 din= 300 dout= 100 full=0 empty=0
                  70 clk=0 rst=0 wr_en=0 rd_en=0 din= 300 dout= 100 full=0 empty=0
                  75 clk=1 rst=0 wr_en=0 rd_en=0 din= 300 dout= 100 full=0 empty=0
                  80 clk=0 rst=0 wr_en=1 rd_en=0 din= 300 dout= 100 full=0 empty=0
                  85 clk=1 rst=0 wr_en=1 rd_en=0 din= 300 dout= 100 full=0 empty=0
                  90 clk=0 rst=0 wr_en=1 rd_en=0 din=1316 dout= 100 full=0 empty=0
                  95 clk=1 rst=0 wr_en=1 rd_en=0 din=1316 dout= 100 full=0 empty=0
                 100 clk=0 rst=0 wr_en=1 rd_en=0 din=3713 dout= 100 full=0 empty=0
                 105 clk=1 rst=0 wr_en=1 rd_en=0 din=3713 dout= 100 full=0 empty=0
                 110 clk=0 rst=0 wr_en=1 rd_en=0 din=1545 dout= 100 full=0 empty=0
                 115 clk=1 rst=0 wr_en=1 rd_en=0 din=1545 dout= 100 full=0 empty=0
                 120 clk=0 rst=0 wr_en=1 rd_en=0 din=1635 dout= 100 full=0 empty=0
                 125 clk=1 rst=0 wr_en=1 rd_en=0 din=1635 dout= 100 full=0 empty=0
                 130 clk=0 rst=0 wr_en=1 rd_en=0 din=2829 dout= 100 full=0 empty=0
                 135 clk=1 rst=0 wr_en=1 rd_en=0 din=2829 dout= 100 full=0 empty=0
                 140 clk=0 rst=0 wr_en=1 rd_en=0 din=2445 dout= 100 full=0 empty=0
                 145 clk=1 rst=0 wr_en=1 rd_en=0 din=2445 dout= 100 full=0 empty=0
                 150 clk=0 rst=0 wr_en=1 rd_en=0 din=1125 dout= 100 full=0 empty=0
                 155 clk=1 rst=0 wr_en=1 rd_en=0 din=1125 dout= 100 full=0 empty=0
                 160 clk=0 rst=0 wr_en=1 rd_en=0 din= 530 dout= 100 full=0 empty=0
                 165 clk=1 rst=0 wr_en=1 rd_en=0 din= 530 dout= 100 full=0 empty=0
                 170 clk=0 rst=0 wr_en=1 rd_en=0 din= 769 dout= 100 full=0 empty=0
                 175 clk=1 rst=0 wr_en=1 rd_en=0 din= 769 dout= 100 full=0 empty=0
                 180 clk=0 rst=0 wr_en=1 rd_en=0 din=3341 dout= 100 full=0 empty=0
                 185 clk=1 rst=0 wr_en=1 rd_en=0 din=3341 dout= 100 full=0 empty=0
                 190 clk=0 rst=0 wr_en=1 rd_en=0 din= 374 dout= 100 full=0 empty=0
                 195 clk=1 rst=0 wr_en=1 rd_en=0 din= 374 dout= 100 full=0 empty=0
                 200 clk=0 rst=0 wr_en=1 rd_en=0 din=3389 dout= 100 full=0 empty=0
                 205 clk=1 rst=0 wr_en=1 rd_en=0 din=3389 dout= 100 full=0 empty=0
                 210 clk=0 rst=0 wr_en=1 rd_en=0 din=2029 dout= 100 full=0 empty=0
                 215 clk=1 rst=0 wr_en=1 rd_en=0 din=2029 dout= 100 full=1 empty=0
                 220 clk=0 rst=0 wr_en=1 rd_en=0 din=1932 dout= 100 full=1 empty=0
                 225 clk=1 rst=0 wr_en=1 rd_en=0 din=1932 dout= 100 full=1 empty=0
                 230 clk=0 rst=0 wr_en=1 rd_en=0 din=2553 dout= 100 full=1 empty=0
                 235 clk=1 rst=0 wr_en=1 rd_en=0 din=2553 dout= 100 full=1 empty=0
                 240 clk=0 rst=0 wr_en=0 rd_en=0 din=1222 dout= 100 full=1 empty=0
                 245 clk=1 rst=0 wr_en=0 rd_en=0 din=1222 dout= 100 full=1 empty=0
                 250 clk=0 rst=0 wr_en=1 rd_en=0 din= 999 dout= 100 full=1 empty=0
                 255 clk=1 rst=0 wr_en=1 rd_en=0 din= 999 dout= 100 full=1 empty=0
                 260 clk=0 rst=0 wr_en=0 rd_en=1 din= 999 dout= 100 full=1 empty=0
                 265 clk=1 rst=0 wr_en=0 rd_en=1 din= 999 dout=1932 full=0 empty=0
                 270 clk=0 rst=0 wr_en=0 rd_en=1 din= 999 dout=1932 full=0 empty=0
                 275 clk=1 rst=0 wr_en=0 rd_en=1 din= 999 dout=2553 full=0 empty=0
                 280 clk=0 rst=0 wr_en=0 rd_en=1 din= 999 dout=2553 full=0 empty=0
                 285 clk=1 rst=0 wr_en=0 rd_en=1 din= 999 dout= 999 full=0 empty=0
                 290 clk=0 rst=0 wr_en=0 rd_en=1 din= 999 dout= 999 full=0 empty=0
                 295 clk=1 rst=0 wr_en=0 rd_en=1 din= 999 dout=1316 full=0 empty=0
                 300 clk=0 rst=0 wr_en=0 rd_en=1 din= 999 dout=1316 full=0 empty=0
                 305 clk=1 rst=0 wr_en=0 rd_en=1 din= 999 dout=3713 full=0 empty=0
                 310 clk=0 rst=0 wr_en=0 rd_en=1 din= 999 dout=3713 full=0 empty=0
                 315 clk=1 rst=0 wr_en=0 rd_en=1 din= 999 dout=1545 full=0 empty=0
                 320 clk=0 rst=0 wr_en=0 rd_en=1 din= 999 dout=1545 full=0 empty=0
                 325 clk=1 rst=0 wr_en=0 rd_en=1 din= 999 dout=1635 full=0 empty=0
                 330 clk=0 rst=0 wr_en=0 rd_en=1 din= 999 dout=1635 full=0 empty=0
                 335 clk=1 rst=0 wr_en=0 rd_en=1 din= 999 dout=2829 full=0 empty=0
                 340 clk=0 rst=0 wr_en=0 rd_en=1 din= 999 dout=2829 full=0 empty=0
                 345 clk=1 rst=0 wr_en=0 rd_en=1 din= 999 dout=2445 full=0 empty=0
                 350 clk=0 rst=0 wr_en=0 rd_en=1 din= 999 dout=2445 full=0 empty=0
                 355 clk=1 rst=0 wr_en=0 rd_en=1 din= 999 dout=1125 full=0 empty=0
                 360 clk=0 rst=0 wr_en=0 rd_en=1 din= 999 dout=1125 full=0 empty=0
                 365 clk=1 rst=0 wr_en=0 rd_en=1 din= 999 dout= 530 full=0 empty=0
                 370 clk=0 rst=0 wr_en=0 rd_en=1 din= 999 dout= 530 full=0 empty=0
                 375 clk=1 rst=0 wr_en=0 rd_en=1 din= 999 dout= 769 full=0 empty=0
                 380 clk=0 rst=0 wr_en=0 rd_en=1 din= 999 dout= 769 full=0 empty=0
                 385 clk=1 rst=0 wr_en=0 rd_en=1 din= 999 dout=3341 full=0 empty=0
                 390 clk=0 rst=0 wr_en=0 rd_en=1 din= 999 dout=3341 full=0 empty=0
                 395 clk=1 rst=0 wr_en=0 rd_en=1 din= 999 dout= 374 full=0 empty=0
                 400 clk=0 rst=0 wr_en=0 rd_en=1 din= 999 dout= 374 full=0 empty=0
                 405 clk=1 rst=0 wr_en=0 rd_en=1 din= 999 dout=3389 full=0 empty=0
                 410 clk=0 rst=0 wr_en=0 rd_en=1 din= 999 dout=3389 full=0 empty=0
                 415 clk=1 rst=0 wr_en=0 rd_en=1 din= 999 dout=2029 full=0 empty=1
                 420 clk=0 rst=0 wr_en=0 rd_en=1 din= 999 dout=2029 full=0 empty=1
                 425 clk=1 rst=0 wr_en=0 rd_en=1 din= 999 dout=2029 full=0 empty=1
                 430 clk=0 rst=0 wr_en=0 rd_en=1 din= 999 dout=2029 full=0 empty=1
                 435 clk=1 rst=0 wr_en=0 rd_en=1 din= 999 dout=2029 full=0 empty=1
                 440 clk=0 rst=0 wr_en=0 rd_en=0 din= 999 dout=2029 full=0 empty=1
                 445 clk=1 rst=0 wr_en=0 rd_en=0 din= 999 dout=2029 full=0 empty=1
                 450 clk=0 rst=0 wr_en=0 rd_en=0 din= 999 dout=2029 full=0 empty=1
                 455 clk=1 rst=0 wr_en=0 rd_en=0 din= 999 dout=2029 full=0 empty=1
$finish called at time : 460 ns : File "/home/dongyunlee/Desktop/SD_unit_testing/SD_testing_untis/SD_testing_untis.srcs/sim_1/new/BRAM_tb.v" Line 101
